{
    "key": "group_5aafda0680c23",
    "title": "piratFält",
    "fields": [
        {
            "key": "field_5aafda41c7e56",
            "label": "Moduler",
            "name": "modules",
            "type": "flexible_content",
            "instructions": "",
            "required": 0,
            "conditional_logic": 0,
            "wrapper": {
                "width": "",
                "class": "",
                "id": ""
            },
            "layouts": {
                "5ae613833e8b6": {
                    "key": "5ae613833e8b6",
                    "name": "three_tabs_with_header",
                    "label": "Huvudbild med text och tre tabbar",
                    "display": "block",
                    "sub_fields": [
                        {
                            "key": "field_5afd1d3f00e1d",
                            "label": "Titel",
                            "name": "title",
                            "type": "textarea",
                            "instructions": "",
                            "required": 0,
                            "conditional_logic": 0,
                            "wrapper": {
                                "width": "",
                                "class": "",
                                "id": ""
                            },
                            "default_value": "",
                            "placeholder": "",
                            "maxlength": "",
                            "rows": "",
                            "new_lines": ""
                        },
                        {
                            "key": "field_5afd1d2800e1c",
                            "label": "Bakgrund",
                            "name": "background",
                            "type": "image",
                            "instructions": "",
                            "required": 0,
                            "conditional_logic": 0,
                            "wrapper": {
                                "width": "",
                                "class": "",
                                "id": ""
                            },
                            "return_format": "array",
                            "preview_size": "medium",
                            "library": "all",
                            "min_width": 1000,
                            "min_height": "",
                            "min_size": "",
                            "max_width": "",
                            "max_height": "",
                            "max_size": "",
                            "mime_types": ""
                        },
                        {
                            "key": "field_5afd28ac33089",
                            "label": "Rubrik banner",
                            "name": "rubrik-banner",
                            "type": "text",
                            "instructions": "",
                            "required": 0,
                            "conditional_logic": 0,
                            "wrapper": {
                                "width": "",
                                "class": "",
                                "id": ""
                            },
                            "default_value": "",
                            "placeholder": "",
                            "prepend": "",
                            "append": "",
                            "maxlength": ""
                        },
                        {
                            "key": "field_5ae613833e8b7",
                            "label": "Tre tabbar",
                            "name": "three_tabs",
                            "type": "repeater",
                            "instructions": "#754f99<br \/>\r\n#8465a6<br \/>\r\n#694d91 (default)",
                            "required": 0,
                            "conditional_logic": 0,
                            "wrapper": {
                                "width": "",
                                "class": "",
                                "id": ""
                            },
                            "collapsed": "",
                            "min": 0,
                            "max": 0,
                            "layout": "table",
                            "button_label": "",
                            "sub_fields": [
                                {
                                    "key": "field_5ae613833e8b8",
                                    "label": "Text",
                                    "name": "three_tabs_text",
                                    "type": "textarea",
                                    "instructions": "",
                                    "required": 0,
                                    "conditional_logic": 0,
                                    "wrapper": {
                                        "width": "",
                                        "class": "",
                                        "id": ""
                                    },
                                    "default_value": "",
                                    "placeholder": "",
                                    "maxlength": "",
                                    "rows": "",
                                    "new_lines": ""
                                },
                                {
                                    "key": "field_5ae613833e8b9",
                                    "label": "Wysiwyg",
                                    "name": "wysiwyg",
                                    "type": "wysiwyg",
                                    "instructions": "",
                                    "required": 1,
                                    "conditional_logic": 0,
                                    "wrapper": {
                                        "width": "",
                                        "class": "",
                                        "id": ""
                                    },
                                    "default_value": "",
                                    "tabs": "all",
                                    "toolbar": "full",
                                    "media_upload": 1,
                                    "delay": 0
                                },
                                {
                                    "key": "field_5ae613833e8ba",
                                    "label": "Färg (hex)",
                                    "name": "color_hex",
                                    "type": "text",
                                    "instructions": "",
                                    "required": 0,
                                    "conditional_logic": 0,
                                    "wrapper": {
                                        "width": "",
                                        "class": "",
                                        "id": ""
                                    },
                                    "default_value": "#694d91",
                                    "placeholder": "",
                                    "prepend": "",
                                    "append": "",
                                    "maxlength": ""
                                },
                                {
                                    "key": "field_5b227823e27c6",
                                    "label": "Link",
                                    "name": "link",
                                    "type": "link",
                                    "instructions": "",
                                    "required": 0,
                                    "conditional_logic": 0,
                                    "wrapper": {
                                        "width": "",
                                        "class": "",
                                        "id": ""
                                    },
                                    "return_format": "array"
                                }
                            ]
                        },
                        {
                            "key": "field_5af9d07cb35a7",
                            "label": "anchor",
                            "name": "anchor",
                            "type": "text",
                            "instructions": "",
                            "required": 0,
                            "conditional_logic": 0,
                            "wrapper": {
                                "width": "",
                                "class": "",
                                "id": ""
                            },
                            "default_value": "",
                            "placeholder": "",
                            "prepend": "",
                            "append": "",
                            "maxlength": ""
                        }
                    ],
                    "min": "",
                    "max": ""
                },
                "layout_5e42b92b94f21": {
                    "key": "layout_5e42b92b94f21",
                    "name": "three_tabs_with_slider",
                    "label": "Slideshow och tre tabbar",
                    "display": "block",
                    "sub_fields": [
                        {
                            "key": "field_5e5179ffa4f98",
                            "label": "Slides",
                            "name": "slides",
                            "type": "repeater",
                            "instructions": "",
                            "required": 1,
                            "conditional_logic": 0,
                            "wrapper": {
                                "width": "",
                                "class": "",
                                "id": ""
                            },
                            "collapsed": "",
                            "min": 1,
                            "max": 11,
                            "layout": "table",
                            "button_label": "",
                            "sub_fields": [
                                {
                                    "key": "field_5e517a10a4f99",
                                    "label": "Rubrik",
                                    "name": "title",
                                    "type": "text",
                                    "instructions": "",
                                    "required": 0,
                                    "conditional_logic": 0,
                                    "wrapper": {
                                        "width": "",
                                        "class": "",
                                        "id": ""
                                    },
                                    "default_value": "",
                                    "placeholder": "",
                                    "prepend": "",
                                    "append": "",
                                    "maxlength": ""
                                },
                                {
                                    "key": "field_5e5ae4e984ede",
                                    "label": "Länk",
                                    "name": "link",
                                    "type": "link",
                                    "instructions": "Ifall en användare klickar på bilden så kommer man att gå till länken som anges här. Ifall ingen länk anges så kommer bilden inte vara klickbar.",
                                    "required": 0,
                                    "conditional_logic": 0,
                                    "wrapper": {
                                        "width": "",
                                        "class": "",
                                        "id": ""
                                    },
                                    "return_format": "url"
                                },
                                {
                                    "key": "field_5e517a34a4f9a",
                                    "label": "Bild",
                                    "name": "image",
                                    "type": "image",
                                    "instructions": "",
                                    "required": 0,
                                    "conditional_logic": 0,
                                    "wrapper": {
                                        "width": "",
                                        "class": "",
                                        "id": ""
                                    },
                                    "return_format": "array",
                                    "preview_size": "medium",
                                    "library": "all",
                                    "min_width": 1000,
                                    "min_height": "",
                                    "min_size": "",
                                    "max_width": "",
                                    "max_height": "",
                                    "max_size": "",
                                    "mime_types": ""
                                }
                            ]
                        },
                        {
                            "key": "field_5e517817ed02a",
                            "label": "Antal nyheter",
                            "name": "post_count",
                            "type": "number",
                            "instructions": "",
                            "required": 1,
                            "conditional_logic": 0,
                            "wrapper": {
                                "width": "",
                                "class": "",
                                "id": ""
                            },
                            "default_value": 2,
                            "placeholder": 2,
                            "prepend": "",
                            "append": "",
                            "min": 0,
                            "max": 3,
                            "step": ""
                        },
                        {
                            "key": "field_5e42b92b94f24",
                            "label": "Rubrik banner",
                            "name": "rubrik-banner",
                            "type": "text",
                            "instructions": "",
                            "required": 0,
                            "conditional_logic": 0,
                            "wrapper": {
                                "width": "",
                                "class": "",
                                "id": ""
                            },
                            "default_value": "",
                            "placeholder": "",
                            "prepend": "",
                            "append": "",
                            "maxlength": ""
                        },
                        {
                            "key": "field_5e42b92b94f25",
                            "label": "Tre tabbar",
                            "name": "three_tabs",
                            "type": "repeater",
                            "instructions": "#754f99<br \/>\r\n#8465a6<br \/>\r\n#694d91 (default)",
                            "required": 0,
                            "conditional_logic": 0,
                            "wrapper": {
                                "width": "",
                                "class": "",
                                "id": ""
                            },
                            "collapsed": "",
                            "min": 0,
                            "max": 0,
                            "layout": "table",
                            "button_label": "",
                            "sub_fields": [
                                {
                                    "key": "field_5e42b92b94f26",
                                    "label": "Text",
                                    "name": "three_tabs_text",
                                    "type": "textarea",
                                    "instructions": "",
                                    "required": 0,
                                    "conditional_logic": 0,
                                    "wrapper": {
                                        "width": "",
                                        "class": "",
                                        "id": ""
                                    },
                                    "default_value": "",
                                    "placeholder": "",
                                    "maxlength": "",
                                    "rows": "",
                                    "new_lines": ""
                                },
                                {
                                    "key": "field_5e42b92b94f27",
                                    "label": "Wysiwyg",
                                    "name": "wysiwyg",
                                    "type": "wysiwyg",
                                    "instructions": "",
                                    "required": 1,
                                    "conditional_logic": 0,
                                    "wrapper": {
                                        "width": "",
                                        "class": "",
                                        "id": ""
                                    },
                                    "default_value": "",
                                    "tabs": "all",
                                    "toolbar": "full",
                                    "media_upload": 1,
                                    "delay": 0
                                },
                                {
                                    "key": "field_5e42b92b94f28",
                                    "label": "Färg (hex)",
                                    "name": "color_hex",
                                    "type": "text",
                                    "instructions": "",
                                    "required": 0,
                                    "conditional_logic": 0,
                                    "wrapper": {
                                        "width": "",
                                        "class": "",
                                        "id": ""
                                    },
                                    "default_value": "#694d91",
                                    "placeholder": "",
                                    "prepend": "",
                                    "append": "",
                                    "maxlength": ""
                                },
                                {
                                    "key": "field_5e42b92b94f29",
                                    "label": "Link",
                                    "name": "link",
                                    "type": "link",
                                    "instructions": "",
                                    "required": 0,
                                    "conditional_logic": 0,
                                    "wrapper": {
                                        "width": "",
                                        "class": "",
                                        "id": ""
                                    },
                                    "return_format": "array"
                                }
                            ]
                        },
                        {
                            "key": "field_5e42b92b94f2a",
                            "label": "anchor",
                            "name": "anchor",
                            "type": "text",
                            "instructions": "",
                            "required": 0,
                            "conditional_logic": 0,
                            "wrapper": {
                                "width": "",
                                "class": "",
                                "id": ""
                            },
                            "default_value": "",
                            "placeholder": "",
                            "prepend": "",
                            "append": "",
                            "maxlength": ""
                        }
                    ],
                    "min": "",
                    "max": ""
                },
                "5af7d411d81cb": {
                    "key": "5af7d411d81cb",
                    "name": "fullbreddsbild",
                    "label": "Fullbreddsbild",
                    "display": "block",
                    "sub_fields": [
                        {
                            "key": "field_5af7d427d81cd",
                            "label": "Bild",
                            "name": "img",
                            "type": "image",
                            "instructions": "",
                            "required": 0,
                            "conditional_logic": 0,
                            "wrapper": {
                                "width": "",
                                "class": "",
                                "id": ""
                            },
                            "return_format": "array",
                            "preview_size": "medium",
                            "library": "all",
                            "min_width": "",
                            "min_height": "",
                            "min_size": "",
                            "max_width": "",
                            "max_height": "",
                            "max_size": "",
                            "mime_types": ""
                        },
                        {
                            "key": "field_5af7d565ff489",
                            "label": "Bildtext (rubrik)",
                            "name": "title",
                            "type": "textarea",
                            "instructions": "Skriv den text som skall vara bildtext. Tex rubriken på sidan, eller namn på lokalavdelning. Ex: “Örebro lokalavdelning”. (Texten är även bildtexten för alt=\"\" och title=\"\").<br \/>\r\nÄr fältet tomt visas sidans titel.",
                            "required": 0,
                            "conditional_logic": 0,
                            "wrapper": {
                                "width": "",
                                "class": "",
                                "id": ""
                            },
                            "default_value": "",
                            "placeholder": "Bildtext",
                            "maxlength": "",
                            "rows": 4,
                            "new_lines": ""
                        },
                        {
                            "key": "field_5af9d0aeb35ae",
                            "label": "anchor",
                            "name": "anchor",
                            "type": "text",
                            "instructions": "",
                            "required": 0,
                            "conditional_logic": 0,
                            "wrapper": {
                                "width": "",
                                "class": "",
                                "id": ""
                            },
                            "default_value": "",
                            "placeholder": "",
                            "prepend": "",
                            "append": "",
                            "maxlength": ""
                        }
                    ],
                    "min": "",
                    "max": ""
                },
                "5aafe0040f2f7": {
                    "key": "5aafe0040f2f7",
                    "name": "text_banner",
                    "label": "Textbanner",
                    "display": "block",
                    "sub_fields": [
                        {
                            "key": "field_5ae613a23e8bb",
                            "label": "Icon",
                            "name": "icon",
                            "type": "image",
                            "instructions": "visas ej (inte inlagd)",
                            "required": 0,
                            "conditional_logic": 0,
                            "wrapper": {
                                "width": "",
                                "class": "",
                                "id": ""
                            },
                            "return_format": "array",
                            "preview_size": "thumbnail",
                            "library": "all",
                            "min_width": "",
                            "min_height": "",
                            "min_size": "",
                            "max_width": "",
                            "max_height": "",
                            "max_size": "",
                            "mime_types": ""
                        },
                        {
                            "key": "field_5ae613b43e8bc",
                            "label": "Text",
                            "name": "text",
                            "type": "text",
                            "instructions": "",
                            "required": 0,
                            "conditional_logic": 0,
                            "wrapper": {
                                "width": "",
                                "class": "",
                                "id": ""
                            },
                            "default_value": "",
                            "placeholder": "",
                            "prepend": "",
                            "append": "",
                            "maxlength": ""
                        },
                        {
                            "key": "field_5af9d076b35a6",
                            "label": "anchor",
                            "name": "anchor",
                            "type": "text",
                            "instructions": "",
                            "required": 0,
                            "conditional_logic": 0,
                            "wrapper": {
                                "width": "",
                                "class": "",
                                "id": ""
                            },
                            "default_value": "",
                            "placeholder": "",
                            "prepend": "",
                            "append": "",
                            "maxlength": ""
                        },
                        {
                            "key": "field_5c8f1d83160b4",
                            "label": "Banner URL",
                            "name": "banner_url",
                            "type": "url",
                            "instructions": "För lokala sidor kan man börja med: \/<br \/>\r\nFör intern länk\/anchor på samma sida: #id-namn<br \/>\r\n…på annan sida: \/slug\/#id-namn",
                            "required": 0,
                            "conditional_logic": 0,
                            "wrapper": {
                                "width": "",
                                "class": "",
                                "id": ""
                            },
                            "default_value": "",
                            "placeholder": "Url till sida"
                        }
                    ],
                    "min": "",
                    "max": ""
                },
                "5ab0af080a081": {
                    "key": "5ab0af080a081",
                    "name": "textbanner_subheading",
                    "label": "Textbanner underrubrik",
                    "display": "block",
                    "sub_fields": [
                        {
                            "key": "field_5ab0af080a082",
                            "label": "Fullbredds textbanner underrubrik",
                            "name": "full_width_textbanner_subheading",
                            "type": "textarea",
                            "instructions": "",
                            "required": 0,
                            "conditional_logic": 0,
                            "wrapper": {
                                "width": "",
                                "class": "",
                                "id": ""
                            },
                            "default_value": "",
                            "placeholder": "",
                            "maxlength": "",
                            "rows": "",
                            "new_lines": ""
                        },
                        {
                            "key": "field_5ac34afe91f4e",
                            "label": "Link",
                            "name": "link",
                            "type": "page_link",
                            "instructions": "",
                            "required": 1,
                            "conditional_logic": 0,
                            "wrapper": {
                                "width": "",
                                "class": "",
                                "id": ""
                            },
                            "post_type": [],
                            "taxonomy": [],
                            "allow_null": 0,
                            "allow_archives": 1,
                            "multiple": 0
                        },
                        {
                            "key": "field_5ac34b1091f4f",
                            "label": "Link title",
                            "name": "link_title",
                            "type": "text",
                            "instructions": "",
                            "required": 0,
                            "conditional_logic": 0,
                            "wrapper": {
                                "width": "",
                                "class": "",
                                "id": ""
                            },
                            "default_value": "",
                            "placeholder": "",
                            "prepend": "",
                            "append": "",
                            "maxlength": ""
                        },
                        {
                            "key": "field_5af9d070b35a5",
                            "label": "anchor",
                            "name": "anchor",
                            "type": "text",
                            "instructions": "",
                            "required": 0,
                            "conditional_logic": 0,
                            "wrapper": {
                                "width": "",
                                "class": "",
                                "id": ""
                            },
                            "default_value": "",
                            "placeholder": "",
                            "prepend": "",
                            "append": "",
                            "maxlength": ""
                        }
                    ],
                    "min": "",
                    "max": ""
                },
                "5afd1cd01f0da": {
                    "key": "5afd1cd01f0da",
                    "name": "three_tabs",
                    "label": "Tre tabbar",
                    "display": "block",
                    "sub_fields": [
                        {
                            "key": "field_5afd1cd01f0db",
                            "label": "Tre tabbar",
                            "name": "three_tabs",
                            "type": "repeater",
                            "instructions": "",
                            "required": 0,
                            "conditional_logic": 0,
                            "wrapper": {
                                "width": "",
                                "class": "",
                                "id": ""
                            },
                            "collapsed": "",
                            "min": 0,
                            "max": 0,
                            "layout": "row",
                            "button_label": "",
                            "sub_fields": [
                                {
                                    "key": "field_5afd1cd01f0dc",
                                    "label": "Text",
                                    "name": "three_tabs_text",
                                    "type": "textarea",
                                    "instructions": "",
                                    "required": 0,
                                    "conditional_logic": 0,
                                    "wrapper": {
                                        "width": "",
                                        "class": "",
                                        "id": ""
                                    },
                                    "default_value": "",
                                    "placeholder": "",
                                    "maxlength": "",
                                    "rows": "",
                                    "new_lines": ""
                                },
                                {
                                    "key": "field_5afd1cd01f0dd",
                                    "label": "Wysiwyg",
                                    "name": "wysiwyg",
                                    "type": "wysiwyg",
                                    "instructions": "",
                                    "required": 1,
                                    "conditional_logic": 0,
                                    "wrapper": {
                                        "width": "",
                                        "class": "",
                                        "id": ""
                                    },
                                    "default_value": "",
                                    "tabs": "all",
                                    "toolbar": "full",
                                    "media_upload": 1,
                                    "delay": 0
                                },
                                {
                                    "key": "field_5afd1cd01f0de",
                                    "label": "Färg (hex)",
                                    "name": "color_hex",
                                    "type": "text",
                                    "instructions": "",
                                    "required": 0,
                                    "conditional_logic": 0,
                                    "wrapper": {
                                        "width": "",
                                        "class": "",
                                        "id": ""
                                    },
                                    "default_value": "",
                                    "placeholder": "",
                                    "prepend": "",
                                    "append": "",
                                    "maxlength": ""
                                },
                                {
                                    "key": "field_5b7a975d920c5",
                                    "label": "extra_html",
                                    "name": "extra_html",
                                    "type": "textarea",
                                    "instructions": "",
                                    "required": 0,
                                    "conditional_logic": 0,
                                    "wrapper": {
                                        "width": "",
                                        "class": "",
                                        "id": ""
                                    },
                                    "default_value": "",
                                    "placeholder": "",
                                    "maxlength": "",
                                    "rows": "",
                                    "new_lines": ""
                                }
                            ]
                        },
                        {
                            "key": "field_5afd1cd01f0df",
                            "label": "anchor",
                            "name": "anchor",
                            "type": "text",
                            "instructions": "",
                            "required": 0,
                            "conditional_logic": 0,
                            "wrapper": {
                                "width": "",
                                "class": "",
                                "id": ""
                            },
                            "default_value": "",
                            "placeholder": "",
                            "prepend": "",
                            "append": "",
                            "maxlength": ""
                        }
                    ],
                    "min": "",
                    "max": ""
                },
                "5ab0190c463be": {
                    "key": "5ab0190c463be",
                    "name": "text_block",
                    "label": "Textblock",
                    "display": "block",
                    "sub_fields": [
                        {
                            "key": "field_5ab0191e463bf",
                            "label": "Text\/innnehåll",
                            "name": "text_content",
                            "type": "wysiwyg",
                            "instructions": "",
                            "required": 0,
                            "conditional_logic": 0,
                            "wrapper": {
                                "width": "",
                                "class": "",
                                "id": ""
                            },
                            "default_value": "",
                            "tabs": "all",
                            "toolbar": "basic",
                            "media_upload": 1,
                            "delay": 0
                        },
                        {
                            "key": "field_5af9d0a2b35ac",
                            "label": "anchor",
                            "name": "anchor",
                            "type": "text",
                            "instructions": "",
                            "required": 0,
                            "conditional_logic": 0,
                            "wrapper": {
                                "width": "",
                                "class": "",
                                "id": ""
                            },
                            "default_value": "",
                            "placeholder": "",
                            "prepend": "",
                            "append": "",
                            "maxlength": ""
                        }
                    ],
                    "min": "",
                    "max": ""
                },
                "layout_5c7b942fa1557": {
                    "key": "layout_5c7b942fa1557",
                    "name": "video_youtube",
                    "label": "Video: YouTube",
                    "display": "block",
                    "sub_fields": [
                        {
                            "key": "field_5c7b942fa1558",
                            "label": "Video ID",
                            "name": "video_id",
                            "type": "text",
                            "instructions": "Ange filmen ID (inte hela länken)",
                            "required": 0,
                            "conditional_logic": 0,
                            "wrapper": {
                                "width": "",
                                "class": "",
                                "id": ""
                            },
                            "default_value": "",
                            "placeholder": "",
                            "prepend": "",
                            "append": "",
                            "maxlength": ""
                        },
                        {
                            "key": "field_5c7b942fa1559",
                            "label": "anchor",
                            "name": "anchor",
                            "type": "text",
                            "instructions": "",
                            "required": 0,
                            "conditional_logic": 0,
                            "wrapper": {
                                "width": "",
                                "class": "",
                                "id": ""
                            },
                            "default_value": "",
                            "placeholder": "",
                            "prepend": "",
                            "append": "",
                            "maxlength": ""
                        }
                    ],
                    "min": "",
                    "max": ""
                },
                "layout_5c805ac8f0671": {
                    "key": "layout_5c805ac8f0671",
                    "name": "video_vimeo",
                    "label": "Video: Vimeo",
                    "display": "block",
                    "sub_fields": [
                        {
                            "key": "field_5c805ac8f0672",
                            "label": "Video ID",
                            "name": "video_id",
                            "type": "text",
                            "instructions": "Ange filmen ID (inte hela länken)",
                            "required": 0,
                            "conditional_logic": 0,
                            "wrapper": {
                                "width": "",
                                "class": "",
                                "id": ""
                            },
                            "default_value": "",
                            "placeholder": "",
                            "prepend": "",
                            "append": "",
                            "maxlength": ""
                        },
                        {
                            "key": "field_5c805ac8f0673",
                            "label": "anchor",
                            "name": "anchor",
                            "type": "text",
                            "instructions": "",
                            "required": 0,
                            "conditional_logic": 0,
                            "wrapper": {
                                "width": "",
                                "class": "",
                                "id": ""
                            },
                            "default_value": "",
                            "placeholder": "",
                            "prepend": "",
                            "append": "",
                            "maxlength": ""
                        }
                    ],
                    "min": "",
                    "max": ""
                },
                "layout_5c8d8b6b75f45": {
                    "key": "layout_5c8d8b6b75f45",
                    "name": "video_twitch",
                    "label": "Video: Twitch",
                    "display": "block",
                    "sub_fields": [
                        {
                            "key": "field_5c8d8b6b75f46",
                            "label": "Video ID",
                            "name": "video_id",
                            "type": "text",
                            "instructions": "Ange filmen ID (inte hela länken)",
                            "required": 0,
                            "conditional_logic": 0,
                            "wrapper": {
                                "width": "",
                                "class": "",
                                "id": ""
                            },
                            "default_value": "",
                            "placeholder": "",
                            "prepend": "",
                            "append": "",
                            "maxlength": ""
                        },
                        {
                            "key": "field_5c8d8b6b75f47",
                            "label": "anchor",
                            "name": "anchor",
                            "type": "text",
                            "instructions": "",
                            "required": 0,
                            "conditional_logic": 0,
                            "wrapper": {
                                "width": "",
                                "class": "",
                                "id": ""
                            },
                            "default_value": "",
                            "placeholder": "",
                            "prepend": "",
                            "append": "",
                            "maxlength": ""
                        }
                    ],
                    "min": "",
                    "max": ""
                },
                "5af7d6dab4fbb": {
                    "key": "5af7d6dab4fbb",
                    "name": "child_pages",
                    "label": "Undersidor",
                    "display": "block",
                    "sub_fields": [
                        {
                            "key": "field_5c7f005c98487",
                            "label": "Titel",
                            "name": "children_title",
                            "type": "text",
                            "instructions": "Text som visas i bannern. Är det tom visas sidans titel.",
                            "required": 0,
                            "conditional_logic": 0,
                            "wrapper": {
                                "width": "",
                                "class": "",
                                "id": ""
                            },
                            "default_value": "",
                            "placeholder": "Bannertext",
                            "prepend": "",
                            "append": "",
                            "maxlength": ""
                        },
                        {
                            "key": "field_5c8ef96aa5115",
                            "label": "Färg på textbanner",
                            "name": "color_class_name",
                            "type": "text",
                            "instructions": "Ange det class-namn som representerar resp pp-färgen:<br \/>\r\n<em>pp-lila, pp-orange, pp-gul, pp-gron, pp-rosa, pp-rod, pp-bla, pp-morkbla, pp-turkos<\/em>",
                            "required": 0,
                            "conditional_logic": 0,
                            "wrapper": {
                                "width": "",
                                "class": "",
                                "id": ""
                            },
                            "default_value": "pp-morkbla",
                            "placeholder": "Ange class-namn (pp-morkbla))",
                            "prepend": "",
                            "append": "",
                            "maxlength": ""
                        },
                        {
                            "key": "field_5c7be224cb1b8",
                            "label": "Sortering av undersidor",
                            "name": "order_asc_desc",
                            "type": "text",
                            "instructions": "Ange ett värde i vilken ordning sidorna skall visas:<br \/>\r\nStigande: ASC<br \/>\r\nFallande: DESC",
                            "required": 0,
                            "conditional_logic": 0,
                            "wrapper": {
                                "width": "",
                                "class": "",
                                "id": ""
                            },
                            "default_value": "ASC",
                            "placeholder": "",
                            "prepend": "",
                            "append": "",
                            "maxlength": 4
                        },
                        {
                            "key": "field_5af9d0b6b35af",
                            "label": "anchor",
                            "name": "anchor",
                            "type": "text",
                            "instructions": "Lägg till ett id (anchor), t ex: lokalforeningar, så kommer man dit direkt med '…\/slug\/#lokalavdelningar'.",
                            "required": 0,
                            "conditional_logic": 0,
                            "wrapper": {
                                "width": "",
                                "class": "",
                                "id": ""
                            },
                            "default_value": "",
                            "placeholder": "",
                            "prepend": "",
                            "append": "",
                            "maxlength": ""
                        },
                        {
                            "key": "field_5c8d74aaf136c",
                            "label": "Meddelande om det är tomt",
                            "name": "no_children_msg",
                            "type": "textarea",
                            "instructions": "Ett kort meddelande som visas då det inte finns några undersidor att visa.<br \/>\r\n'%1s' kan användas för att visa namnet på sidans titel.",
                            "required": 0,
                            "conditional_logic": 0,
                            "wrapper": {
                                "width": "",
                                "class": "",
                                "id": ""
                            },
                            "default_value": "För närvarande finns det inga undersidor till %1s.",
                            "placeholder": "Skriv meddelande",
                            "maxlength": "",
                            "rows": 2,
                            "new_lines": ""
                        }
                    ],
                    "min": "",
                    "max": ""
                },
                "layout_5c8e96a67ee32": {
                    "key": "layout_5c8e96a67ee32",
                    "name": "news_list",
                    "label": "Nyheter lista",
                    "display": "block",
                    "sub_fields": [
                        {
                            "key": "field_5c8e96a67ee33",
                            "label": "Titel",
                            "name": "news_list_title",
                            "type": "text",
                            "instructions": "",
                            "required": 0,
                            "conditional_logic": 0,
                            "wrapper": {
                                "width": "",
                                "class": "",
                                "id": ""
                            },
                            "default_value": "Senaste nytt",
                            "placeholder": "",
                            "prepend": "",
                            "append": "",
                            "maxlength": ""
                        },
                        {
                            "key": "field_5c8e96a67ee34",
                            "label": "Antal artiklar",
                            "name": "post_count",
                            "type": "number",
                            "instructions": "Ange det antal inlägg som skall visas i nyhetslistan. T ex: 5",
                            "required": 0,
                            "conditional_logic": 0,
                            "wrapper": {
                                "width": "",
                                "class": "",
                                "id": ""
                            },
                            "default_value": 5,
                            "placeholder": "",
                            "prepend": "",
                            "append": "",
                            "min": "",
                            "max": "",
                            "step": ""
                        },
                        {
                            "key": "field_5c8e96a67ee35",
                            "label": "Sortering av nyheter",
                            "name": "order_asc_desc",
                            "type": "text",
                            "instructions": "Ange ett värde i vilken ordning nyheterna visas:\r\n\r\nÄldsta först: ASC\r\nSenaste först: DESC",
                            "required": 0,
                            "conditional_logic": 0,
                            "wrapper": {
                                "width": "",
                                "class": "",
                                "id": ""
                            },
                            "default_value": "DESC",
                            "placeholder": "",
                            "prepend": "",
                            "append": "",
                            "maxlength": 4
                        },
                        {
                            "key": "field_5c8e96a67ee36",
                            "label": "anchor",
                            "name": "anchor",
                            "type": "text",
                            "instructions": "",
                            "required": 0,
                            "conditional_logic": 0,
                            "wrapper": {
                                "width": "",
                                "class": "",
                                "id": ""
                            },
                            "default_value": "senaste-nytt",
                            "placeholder": "",
                            "prepend": "",
                            "append": "",
                            "maxlength": ""
                        },
                        {
                            "key": "field_5c8e96a67ee37",
                            "label": "Tagg",
                            "name": "filter_by_tag",
                            "type": "text",
                            "instructions": "För lokalavdelningar… Ange namnet (staden) som tagg. Se till att taggen finns och att alla inlägg som postas från lokalavdelningen är tagged med, t ex Örebro.",
                            "required": 0,
                            "conditional_logic": 0,
                            "wrapper": {
                                "width": "",
                                "class": "",
                                "id": ""
                            },
                            "default_value": "",
                            "placeholder": "Tagg för lokalavdelning",
                            "prepend": "",
                            "append": "",
                            "maxlength": ""
                        },
                        {
                            "key": "field_5c8e96a67ee38",
                            "label": "Meddelande om det är tomt",
                            "name": "no_posts_msg",
                            "type": "textarea",
                            "instructions": "Ett kort meddelande som visas då det inte finns några nyheter att visa.<br \/>\r\n'%1s' kan användas för att visa namnet på taggen.",
                            "required": 0,
                            "conditional_logic": 0,
                            "wrapper": {
                                "width": "",
                                "class": "",
                                "id": ""
                            },
                            "default_value": "För närvarande finns det inga nyheter om %1s.",
                            "placeholder": "Skriv meddelande",
                            "maxlength": "",
                            "rows": 2,
                            "new_lines": ""
                        }
                    ],
                    "min": "",
                    "max": ""
                },
                "layout_5e413fa740fb8": {
                    "key": "layout_5e413fa740fb8",
                    "name": "video",
                    "label": "Video",
                    "display": "block",
                    "sub_fields": [
                        {
                            "key": "field_5e413fbb40fb9",
                            "label": "Video",
                            "name": "file",
                            "type": "file",
                            "instructions": "Videoklipp som är uppladdat direkt på WordPress instansen",
                            "required": 0,
                            "conditional_logic": 0,
                            "wrapper": {
                                "width": "",
                                "class": "",
                                "id": ""
                            },
                            "return_format": "array",
                            "library": "all",
                            "min_size": "",
                            "max_size": "",
                            "mime_types": "mp4,webm,ogg"
                        },
                        {
                            "key": "field_5e414e96c0c69",
                            "label": "anchor",
                            "name": "anchor",
                            "type": "text",
                            "instructions": "",
                            "required": 0,
                            "conditional_logic": 0,
                            "wrapper": {
                                "width": "",
                                "class": "",
                                "id": ""
                            },
                            "default_value": "",
                            "placeholder": "",
                            "prepend": "",
                            "append": "",
                            "maxlength": ""
                        }
                    ],
                    "min": "",
                    "max": ""
                }
            },
            "button_label": "",
            "min": "",
            "max": ""
        }
    ],
    "location": [
        [
            {
                "param": "post_type",
                "operator": "==",
                "value": "page"
            }
        ]
    ],
    "menu_order": 0,
    "position": "normal",
    "style": "default",
    "label_placement": "top",
    "instruction_placement": "label",
    "hide_on_screen": "",
    "active": true,
    "description": "",
    "modified": 1604165797
}