<?xml version="1.0" encoding="UTF-8"?>
<!DOCTYPE svg PUBLIC "-//W3C//DTD SVG 1.1//EN" "http://www.w3.org/Graphics/SVG/1.1/DTD/svg11.dtd">
<svg version="1.1" xmlns="http://www.w3.org/2000/svg" xmlns:xlink="http://www.w3.org/1999/xlink" x="0px" y="0px" width="841.89px" height="595.28px" viewBox="0 0 841.89 595.28" enable-background="new 0 0 841.89 595.28" xml:space="preserve">
<!-- fill = bakgrund hela -->
<rect width="100%" height="100%" fill="#512483"/>
<g>
    <rect x="219.897" y="79.794" fill="none" width="429.847" height="449.706" />
</g>
<!-- fill = färg på innehåll -->
<g fill="#fff">
    <g>
        <path
            d="M400.756,314.714c-31.391,19.943-17.297,62.111-17.297,62.111s-18.983-39.514-5.701-65.277V187.862
            c-5.461-0.354-10.028,0.022-12.89,0.863c-0.815-1.784,4.183-4.554,12.89-7.224v-23.8h12.762v20.575
            c46.062-9.611,137.874-10.085,138.361,70.093C529.218,304.978,429.646,296.356,400.756,314.714 M434.822,119.272
            c-80.297,0-145.392,65.574-145.392,146.459c0,80.883,65.095,146.453,145.392,146.453c80.297,0,145.389-65.57,145.389-146.453
            C580.211,184.846,515.119,119.272,434.822,119.272" />
        <path
            d="M390.521,189.835v107.919c13.489-9.219,36.626-20.363,41.103-41.692
               C440.609,213.215,413.55,195.42,390.521,189.835" />
    </g>
    <g>
        <path
            d="M261.822,474.642v15.752h-2.818v-39.103h10.086c9.175,0,13.874,4.173,13.874,11.606
            c0,6.853-5.251,11.744-13.874,11.744H261.822z M261.822,472.376h7.268c6.909,0,11.054-4.063,11.054-9.479
            c0-5.998-3.73-9.369-11.054-9.369h-7.268V472.376z" />
        <path d="M294.835,490.394h-2.846v-39.103h2.846V490.394z" />
        <path
            d="M309.583,472.707v17.687h-2.819v-39.103h9.977c9.037,0,13.458,3.536,13.458,10.28
            c0,5.913-4.283,10.057-11.109,10.805c0.442,0.275,0.829,0.635,1.188,1.105l13.458,16.912h-2.458c-0.583,0-0.969-0.193-1.382-0.717
            l-12.52-15.864c-0.635-0.802-1.161-1.105-2.68-1.105H309.583z
            M309.583,470.608h6.798c6.965,0,11.054-3.456,11.054-8.872
            c0-5.555-3.73-8.208-10.694-8.208h-7.158V470.608z" />
        <path
            d="M372.231,490.394h-2.183c-0.527,0-0.829-0.303-1.023-0.745l-4.614-11.358h-19.208l-4.586,11.358
            c-0.139,0.414-0.525,0.745-1.05,0.745h-2.156l16-39.103h2.82L372.231,490.394z M346.06,476.188h17.521l-7.988-19.758
            c-0.247-0.637-0.524-1.438-0.773-2.32c-0.248,0.883-0.525,1.684-0.774,2.349L346.06,476.188z" />
        <path d="M398.795,451.291v2.403h-13.736v36.699h-2.818v-36.699h-13.817v-2.403H398.795z" />
        <path
            d="M409.07,474.642v15.752h-2.819v-39.103h10.087c9.175,0,13.873,4.173,13.873,11.606
            c0,6.853-5.251,11.744-13.873,11.744H409.07z M409.07,472.376h7.268c6.909,0,11.056-4.063,11.056-9.479
            c0-5.998-3.731-9.369-11.056-9.369h-7.268V472.376z" />
        <path
            d="M464.36,490.394h-2.184c-0.525,0-0.829-0.303-1.023-0.745l-4.615-11.358h-19.206l-4.587,11.358
            c-0.139,0.414-0.525,0.745-1.05,0.745h-2.155l16-39.103h2.819L464.36,490.394z M438.189,476.188h17.521l-7.988-19.758
            c-0.247-0.637-0.524-1.438-0.773-2.32c-0.248,0.883-0.524,1.684-0.773,2.349L438.189,476.188z" />
        <path
            d="M474.187,472.707v17.687h-2.819v-39.103h9.977c9.038,0,13.459,3.536,13.459,10.28
            c0,5.913-4.283,10.057-11.109,10.805c0.441,0.275,0.827,0.635,1.188,1.105l13.459,16.912h-2.459c-0.582,0-0.969-0.193-1.382-0.717
            l-12.521-15.864c-0.635-0.802-1.16-1.105-2.68-1.105H474.187z M474.187,470.608h6.798c6.964,0,11.055-3.456,11.055-8.872
            c0-5.555-3.731-8.208-10.695-8.208h-7.157V470.608z" />
        <path d="M529.722,451.291v2.403h-13.735v36.699h-2.817v-36.699h-13.818v-2.403H529.722z" />
        <path d="M541.351,490.394h-2.848v-39.103h2.848V490.394z" />
        <path
            d="M575.884,451.291v2.349h-20.588v15.807h17.135v2.295h-17.135v16.304h20.588v2.349h-23.436v-39.103H575.884
            z" />
        <path d="M610.638,451.291v2.403h-13.735v36.699h-2.818v-36.699h-13.817v-2.403H610.638z" />
    </g>
</g>
</svg>