<?xml version="1.0" encoding="utf-8" standalone="no"?>
<svg
    version="1.1"
    xmlns:svg="http://www.w3.org/2000/svg"
    xmlns="http://www.w3.org/2000/svg"
    xmlns:xlink="http://www.w3.org/1999/xlink"
    x="0px"
    y="0px"
    width="410px"
    height="432.17099px"
    viewBox="0 0 410 432.17099"
    enable-background="new 0 0 410 432.17099"
    xml:space="preserve">
    <g transform="translate(0,-163.11)" />
    <g fill="#fff"
       transform="matrix(1.1375464,0,0,1.1375464,-289.62907,-130.67721)">
        <!-- circle -->
        <g fill="#f28903">
            <!-- inner shape -->
            <path fill="#fff"
                  d="m 434.822,407.121 c 77.535,0 140.398,-63.303 140.398,-141.396 0,-78.083 -62.863,-141.389 -140.398,-141.389 -77.545,0 -140.401,63.307 -140.401,141.389 0,78.093 62.856,141.396 140.401,141.396" />
            <path d="m 400.757,314.714 c -31.392,19.943 -17.297,62.111 -17.297,62.111 0,0 -18.983,-39.515 -5.701,-65.277 l 0,-123.686 c -5.461,-0.354 -10.028,0.022 -12.891,0.863 -0.814,-1.784 4.184,-4.554 12.891,-7.224 l 0,-23.8 12.762,0 0,20.575 c 46.062,-9.611 137.874,-10.085 138.361,70.093 0.337,56.609 -99.236,47.987 -128.125,66.345 m 34.065,-195.442 c -80.297,0 -145.392,65.574 -145.392,146.459 0,80.884 65.095,146.452 145.392,146.452 80.297,0 145.39,-65.568 145.39,-146.452 0,-80.885 -65.093,-146.459 -145.39,-146.459" />
            <path d="m 390.521,189.835 0,107.919 c 13.489,-9.219 36.626,-20.363 41.103,-41.692 8.985,-42.847 -18.073,-60.642 -41.103,-66.227" />
        </g>
        <g>
            <path d="m 261.822,474.642 0,15.752 -2.818,0 0,-39.104 10.086,0 c 9.176,0 13.874,4.174 13.874,11.607 0,6.852 -5.251,11.742 -13.874,11.742 l -7.268,0 0,0.003 z m 0,-2.266 7.268,0 c 6.909,0 11.055,-4.062 11.055,-9.479 0,-5.998 -3.73,-9.369 -11.055,-9.369 l -7.268,0 0,18.848 z" />
            <path d="m 294.835,490.394 -2.846,0 0,-39.104 2.846,0 0,39.104 z" />
            <path d="m 309.583,472.707 0,17.688 -2.818,0 0,-39.104 9.977,0 c 9.037,0 13.458,3.537 13.458,10.281 0,5.912 -4.282,10.057 -11.108,10.805 0.441,0.275 0.829,0.635 1.188,1.105 l 13.458,16.91 -2.458,0 c -0.583,0 -0.969,-0.191 -1.382,-0.717 l -12.52,-15.863 c -0.636,-0.803 -1.161,-1.105 -2.681,-1.105 l -5.114,0 0,0 z m 0,-2.098 6.799,0 c 6.965,0 11.054,-3.457 11.054,-8.873 0,-5.555 -3.73,-8.207 -10.694,-8.207 l -7.158,0 0,17.08 z" />
            <path d="m 372.231,490.394 -2.183,0 c -0.527,0 -0.829,-0.303 -1.023,-0.744 l -4.614,-11.359 -19.208,0 -4.586,11.359 c -0.139,0.414 -0.524,0.744 -1.05,0.744 l -2.156,0 16,-39.104 2.82,0 16,39.104 z m -26.171,-14.207 17.521,0 -7.987,-19.758 c -0.247,-0.637 -0.524,-1.438 -0.773,-2.318 -0.248,0.883 -0.524,1.684 -0.773,2.348 l -7.988,19.728 z" />
            <path d="m 398.796,451.291 0,2.404 -13.736,0 0,36.697 -2.818,0 0,-36.697 -13.816,0 0,-2.404 30.37,0 z" />
            <path d="m 409.07,474.642 0,15.752 -2.818,0 0,-39.104 10.087,0 c 9.175,0 13.873,4.174 13.873,11.607 0,6.852 -5.251,11.742 -13.873,11.742 l -7.269,0 0,0.003 z m 0,-2.266 7.269,0 c 6.908,0 11.056,-4.062 11.056,-9.479 0,-5.998 -3.731,-9.369 -11.056,-9.369 l -7.269,0 0,18.848 z" />
            <path d="m 464.36,490.394 -2.184,0 c -0.525,0 -0.829,-0.303 -1.023,-0.744 l -4.615,-11.359 -19.206,0 -4.587,11.359 c -0.139,0.414 -0.524,0.744 -1.05,0.744 l -2.155,0 16,-39.104 2.819,0 16.001,39.104 z m -26.171,-14.207 17.521,0 -7.988,-19.758 c -0.247,-0.637 -0.524,-1.438 -0.773,-2.318 -0.248,0.883 -0.523,1.684 -0.772,2.348 l -7.988,19.728 z" />
            <path d="m 474.187,472.707 0,17.688 -2.819,0 0,-39.104 9.978,0 c 9.038,0 13.459,3.537 13.459,10.281 0,5.912 -4.283,10.057 -11.109,10.805 0.441,0.275 0.827,0.635 1.188,1.105 l 13.459,16.91 -2.459,0 c -0.582,0 -0.97,-0.191 -1.383,-0.717 L 481.98,473.812 c -0.635,-0.803 -1.16,-1.105 -2.68,-1.105 l -5.113,0 0,0 z m 0,-2.098 6.798,0 c 6.964,0 11.055,-3.457 11.055,-8.873 0,-5.555 -3.73,-8.207 -10.694,-8.207 l -7.157,0 -0.002,17.08 0,0 z" />
            <path d="m 529.722,451.291 0,2.404 -13.735,0 0,36.697 -2.816,0 0,-36.697 -13.818,0 0,-2.404 30.369,0 z" />
            <path d="m 541.351,490.394 -2.848,0 0,-39.104 2.848,0 0,39.104 z" />
            <path d="m 575.885,451.291 0,2.35 -20.588,0 0,15.807 17.135,0 0,2.295 -17.135,0 0,16.305 20.588,0 0,2.348 -23.437,0 0,-39.102 23.437,0 0,-0.003 z" />
            <path d="m 610.638,451.291 0,2.404 -13.735,0 0,36.697 -2.817,0 0,-36.697 -13.817,0 0,-2.404 30.369,0 z" />
        </g>
    </g>
</svg>